Sentiment Analysis on Customer Reviews
…
Word frequency

Perform word frequency analysis to identify the most common words used in the reviews. For that use count() function to assess the words which are of high sensitivity

# Code
reviews_tidy %>% count(word,sort = TRUE)

## # A tibble: 571 x 2
##    word      n
##    <chr> <int>
##  1 and      38
##  2 the      35
##  3 to       34
##  4 is       29
##  5 for      22
##  6 this     21
##  7 a        20
##  8 i        20
##  9 of       20
## 10 good     17
## # … with 561 more rows
…
